<?xml version="1.0" encoding="UTF-8" standalone="no"?>
<!-- Created with Inkscape (http://www.inkscape.org/) -->

<svg
   xmlns:dc="http://purl.org/dc/elements/1.1/"
   xmlns:cc="http://creativecommons.org/ns#"
   xmlns:rdf="http://www.w3.org/1999/02/22-rdf-syntax-ns#"
   xmlns:svg="http://www.w3.org/2000/svg"
   xmlns="http://www.w3.org/2000/svg"
   xmlns:sodipodi="http://sodipodi.sourceforge.net/DTD/sodipodi-0.dtd"
   xmlns:inkscape="http://www.inkscape.org/namespaces/inkscape"
   width="204.79117mm"
   height="268.73068mm"
   viewBox="0 0 725.638 952.19533"
   id="svg2"
   version="1.1"
   inkscape:version="0.91 r13725"
   sodipodi:docname="regione-liguria-bianco.svg">
  <defs
     id="defs4" />
  <sodipodi:namedview
     id="base"
     pagecolor="#ffffff"
     bordercolor="#666666"
     borderopacity="1.0"
     inkscape:pageopacity="0.0"
     inkscape:pageshadow="2"
     inkscape:zoom="0.35"
     inkscape:cx="-117.90827"
     inkscape:cy="429.6331"
     inkscape:document-units="px"
     inkscape:current-layer="g4158"
     showgrid="false"
     inkscape:window-width="1920"
     inkscape:window-height="1027"
     inkscape:window-x="-8"
     inkscape:window-y="-8"
     inkscape:window-maximized="1"
     fit-margin-top="0"
     fit-margin-left="0"
     fit-margin-right="0"
     fit-margin-bottom="0" />
  <metadata
     id="metadata7">
    <rdf:RDF>
      <cc:Work
         rdf:about="">
        <dc:format>image/svg+xml</dc:format>
        <dc:type
           rdf:resource="http://purl.org/dc/dcmitype/StillImage" />
        <dc:title></dc:title>
      </cc:Work>
    </rdf:RDF>
  </metadata>
  <g
     inkscape:label="Layer 1"
     inkscape:groupmode="layer"
     id="layer1"
     transform="translate(-5.7654156,-12.65707)">
    <g
       id="g4158"
       transform="matrix(12.969765,0,0,12.969765,-895.7143,-711.92352)">
      <path
         id="path4140"
         d="m 98.787563,56.332683 0,43.481471 -2.604595,0 0,-43.481471 2.604595,0 z"
         inkscape:connector-curvature="0"
         style="clip-rule:evenodd;fill:#ffffff;fill-rule:evenodd" />
      <path
         id="path4142"
         d="m 69.972018,75.795913 55.016462,0 0,2.615033 -55.016462,0 0,-2.615033 z"
         inkscape:connector-curvature="0"
         style="clip-rule:evenodd;fill:#ffffff;fill-rule:evenodd" />
      <path
         id="path4144"
         d="m 70.437799,99.348792 54.084911,0 0,-31.797768 c 0,-4.579236 -1.88651,-7.2561 -4.92555,-8.784184 -3.11674,-1.567351 -7.45954,-1.967962 -12.24807,-1.967962 l -19.738096,0 c -4.787694,0 -9.131327,0.40064 -12.247649,1.967962 -3.039042,1.528084 -4.925965,4.204948 -4.925965,8.784184 l 0,31.797768 4.19e-4,0 z m 54.550681,0.931138 -55.016462,0 0,-0.46577 -0.465769,0 0,-32.26313 c 0,-4.994049 2.083255,-7.926569 5.438944,-9.61381 3.277979,-1.648401 7.754457,-2.070318 12.666215,-2.070318 l 19.737682,0 c 4.9126,0 9.38866,0.421503 12.66664,2.070312 3.35485,1.687661 5.43895,4.619761 5.43895,9.61381 l 0,32.728906 -0.46618,0 z"
         inkscape:connector-curvature="0"
         style="fill:#ffffff" />
      <path
         id="path4146"
         d="m 124.33472,103.56753 c -0.78075,14.29749 -12.72637,25.71592 -27.255284,25.71592 -15.045657,0 -27.307927,-12.22007 -27.307927,-27.20223 0,-0.23227 0,-0.47458 0.01064,-0.7064 l 13.83338,0.28492 c -0.02128,0.37972 -0.04255,0.75903 -0.04255,1.13917 0,9.3732 7.454529,17.00652 16.585431,17.00652 8.85646,0 16.13178,-7.18008 16.56414,-16.14222 l 7.61243,-0.0957 z"
         inkscape:connector-curvature="0"
         style="clip-rule:evenodd;fill:#ffffff;fill-rule:evenodd" />
      <path
         id="path4148"
         d="m 79.007686,65.157806 2.678117,0 1.338845,-2.320111 1.339271,2.320111 2.678117,0 -1.338851,2.319278 1.338851,2.319697 -2.678117,0 -1.339271,2.319697 -1.338845,-2.319697 -2.678117,0 1.338846,-2.319697 -1.338846,-2.319278 z m 28.225274,0 2.6777,0 1.33969,-2.320111 1.33884,2.320111 2.6777,0 -1.3284,2.319278 1.3284,2.319697 -2.6777,0 -1.33884,2.319697 -1.33969,-2.319697 -2.6777,0 1.33885,-2.319697 -1.33885,-2.319278 z m 0,22.246616 2.6777,0 1.33969,-2.319277 1.33884,2.319277 2.6777,0 -1.3284,2.319697 1.3284,2.309255 -2.6777,0 -1.33884,2.308834 -1.33969,-2.308834 -2.6777,0 1.33885,-2.309255 -1.33885,-2.319697 z m -28.225274,0 2.678117,0 1.338845,-2.319277 1.339271,2.319277 2.678117,0 -1.338851,2.319697 1.338851,2.309255 -2.678117,0 -1.339271,2.308834 -1.338845,-2.308834 -2.678117,0 1.338846,-2.309255 -1.338846,-2.319697 z"
         inkscape:connector-curvature="0"
         style="clip-rule:evenodd;fill:#ffffff;fill-rule:evenodd" />
      <path
         id="path4150"
         d="m 97.849323,99.824597 0,22.036073 -0.738144,0 0,-22.036073 0.738144,0 z"
         inkscape:connector-curvature="0"
         style="clip-rule:evenodd;fill:#ffffff;fill-rule:evenodd" />
    </g>
  </g>
</svg>
